<?xml version="1.0" encoding="utf-8"?>
<!-- Generator: Adobe Illustrator 16.0.3, SVG Export Plug-In . SVG Version: 6.00 Build 0)  -->
<!DOCTYPE svg PUBLIC "-//W3C//DTD SVG 1.1//EN" "http://www.w3.org/Graphics/SVG/1.1/DTD/svg11.dtd">
<svg version="1.1" id="Layer_2" xmlns="http://www.w3.org/2000/svg" xmlns:xlink="http://www.w3.org/1999/xlink" x="0px" y="0px"
	 width="297.555px" height="89.967px" viewBox="0 0 297.555 89.967" enable-background="new 0 0 297.555 89.967"
	 xml:space="preserve">
<g>
	<path fill="#3C82CD" d="M69.115,57.853c3.775-5.861,5.977-12.827,5.977-20.314C75.091,16.806,58.278,0,37.546,0
		c-0.353,0-0.697,0.013-1.044,0.023c3.038,2.751,6.521,6.74,10.558,12.188c0,0-17.828-11.371-26.822,33.524
		c-1.512,7.549-3.423,14.976-5.398,21.693c3.687,2.805,7.903,4.939,12.467,6.227c4.15-39.097,5.521-72.726,34.085-34.165
		c0,0-17.828-11.365-26.819,33.522c-0.133,0.635-0.271,1.273-0.403,1.909c1.115,0.097,2.241,0.157,3.379,0.157
		c2.371,0,4.694-0.227,6.941-0.648C47.549,52.035,52.595,39.461,69.115,57.853z"/>
	<path fill="#3C82CD" d="M0,37.537c0,10.293,4.146,19.61,10.849,26.394c3.205-22.331,4.075-46.092,8.117-59.006
		C7.64,11.385,0,23.564,0,37.537z"/>
	<path fill="#3C82CD" d="M101.581,64.161c-3.516,0-6.103-1.113-7.759-3.338l-2.651,2.701h-6.068
		c2.119-5.407,3.564-10.274,4.333-14.586l6.328-35.407h8.091l-2.79,15.883c2.049-1.321,4.562-1.987,7.519-1.987
		c4.435,0,7.937,1.477,10.5,4.435c2.423,2.795,3.638,6.458,3.638,10.978c0,5.881-2.053,10.909-6.166,15.076
		C112.451,62.077,107.457,64.161,101.581,64.161L101.581,64.161z M105.345,34.38c-2.219,0-4.138,0.948-5.749,2.849l-3.224,17.577
		c0.834,1.725,2.504,2.588,4.994,2.588c3.86,0,6.95-1.398,9.27-4.186c2.161-2.635,3.238-5.921,3.238-9.863
		C113.874,37.367,111.036,34.38,105.345,34.38z"/>
	<path fill="#3C82CD" d="M132.643,48.132c-0.044,0.576-0.065,1.071-0.065,1.493c0,2.468,0.74,4.364,2.215,5.688
		c1.474,1.324,3.522,1.986,6.143,1.986c1.4,0,3.008-0.376,4.831-1.145c1.823-0.76,3.25-1.616,4.298-2.567l-0.964,8.687
		c-2.808,1.254-6.247,1.887-10.292,1.887c-4.382,0-7.936-1.379-10.658-4.127c-2.72-2.762-4.075-6.543-4.075-11.346
		c0-6.086,1.961-11.146,5.88-15.19c3.923-4.045,9.058-6.071,15.396-6.071c3.731,0,6.762,0.79,9.085,2.367
		c2.319,1.579,3.479,3.835,3.479,6.763c0,3.994-1.73,7.125-5.199,9.396c-3.467,2.274-7.735,3.407-12.799,3.407
		C137.437,49.36,135.014,48.955,132.643,48.132L132.643,48.132z M134.235,41.961c1.438,0.421,3.001,0.634,4.688,0.634
		c3.013,0,5.567-0.464,7.65-1.393c2.082-0.925,3.128-2.256,3.128-3.998c0-1.947-2.105-2.914-6.321-2.914
		c-1.667,0-3.36,0.732-5.09,2.192C136.563,37.951,135.207,39.773,134.235,41.961z"/>
	<path fill="#3C82CD" d="M186.838,63.524h-8.537l3.869-20.668c0.311-1.654,0.459-3.043,0.459-4.169c0-2.929-1.738-4.396-5.209-4.396
		c-2.964,0-5.631,1.25-8.002,3.754l-4.779,25.479h-8.396l5.127-26.593c0.089-0.469,0.133-1.108,0.133-1.925
		c0-1.942-0.312-4.024-0.918-6.22l8.112-1.538l0.72,3.974c2.919-2.53,6.587-3.794,10.984-3.794c7.299,0,10.948,3.397,10.948,10.185
		c0,1.216-0.156,2.656-0.466,4.308L186.838,63.524z"/>
	<path fill="#3C82CD" d="M201.472,48.132c-0.041,0.576-0.059,1.071-0.059,1.493c0,2.468,0.732,4.364,2.208,5.688
		c1.48,1.324,3.526,1.986,6.148,1.986c1.4,0,3.008-0.376,4.828-1.145c1.819-0.76,3.253-1.616,4.294-2.567l-0.956,8.687
		c-2.813,1.254-6.246,1.887-10.292,1.887c-4.38,0-7.936-1.379-10.659-4.127c-2.723-2.762-4.083-6.543-4.083-11.346
		c0-6.086,1.96-11.146,5.884-15.19c3.924-4.045,9.058-6.071,15.395-6.071c3.737,0,6.764,0.79,9.087,2.367
		c2.319,1.579,3.479,3.835,3.479,6.763c0,3.994-1.733,7.125-5.194,9.396c-3.467,2.274-7.735,3.407-12.799,3.407
		C206.273,49.36,203.847,48.955,201.472,48.132L201.472,48.132z M203.064,41.961c1.445,0.421,3.01,0.634,4.698,0.634
		c3.008,0,5.564-0.464,7.641-1.393c2.09-0.925,3.131-2.256,3.131-3.998c0-1.947-2.108-2.914-6.316-2.914
		c-1.668,0-3.365,0.732-5.092,2.192C205.396,37.951,204.043,39.773,203.064,41.961z"/>
	<path fill="#3C82CD" d="M255.007,21.453c-1.788-0.769-3.318-1.154-4.602-1.154c-3.183,0-5.364,2.587-6.558,7.766h8.121l-0.83,6.674
		h-8.313l-5.29,31.042c-0.579,3.378-2.14,6.156-4.677,8.342c-2.543,2.182-5.514,3.281-8.914,3.309l-1.757-5.5
		c1.571-0.359,2.993-1.139,4.262-2.352c1.26-1.215,2.037-2.592,2.322-4.139l5.508-30.701h-4.96l1.095-6.674h4.859
		c2.274-9.688,7.454-14.533,15.531-14.533c2.297,0,4.245,0.472,5.86,1.417L255.007,21.453z"/>
	<path fill="#3C82CD" d="M262.024,63.524h-8.432l5.349-28.786h-4.538l1.391-6.674h12.818L262.024,63.524L262.024,63.524z
		 M259.498,16.646c0-1.493,0.519-2.724,1.577-3.71c1.053-0.986,2.326-1.477,3.84-1.477c1.48,0,2.756,0.491,3.814,1.477
		c1.066,0.986,1.593,2.217,1.593,3.71c0,1.459-0.525,2.697-1.593,3.695c-1.06,0.995-2.334,1.495-3.814,1.495
		c-1.49,0-2.767-0.493-3.823-1.487C260.038,19.367,259.498,18.129,259.498,16.646z"/>
	<path fill="#3C82CD" d="M293.712,37.773c-2.643-2.324-5.062-3.483-7.258-3.483c-1.367,0-2.55,0.313-3.55,0.938
		c-0.992,0.633-1.505,1.471-1.505,2.541c0,1.299,1.193,2.558,3.592,3.769c2.386,1.215,4.227,2.179,5.502,2.894
		c1.273,0.72,2.317,1.689,3.131,2.915c0.817,1.223,1.226,2.631,1.226,4.213c0,3.903-1.464,6.977-4.39,9.226
		c-2.92,2.252-6.655,3.375-11.208,3.375c-3.882,0-7.677-1.095-11.39-3.28l4.38-7.488c2.749,2.608,5.438,3.907,8.08,3.907
		c1.672,0,3.057-0.417,4.146-1.26c1.085-0.832,1.623-1.972,1.623-3.408c0-1.192-1.03-2.325-3.095-3.409
		c-2.078-1.082-3.907-2.066-5.486-2.964c-1.585-0.889-2.794-1.982-3.631-3.271c-0.822-1.291-1.23-2.713-1.23-4.283
		c0-3.438,1.372-6.181,4.128-8.221c2.745-2.034,6.12-3.056,10.117-3.056c2.738,0,6.296,0.928,10.66,2.787L293.712,37.773z"/>
	<path fill="#3C82CD" d="M70.616,75.582l-1.831,8.722c-0.125,0.572-0.186,1.12-0.186,1.631c0,1.219,0.282,2.48,0.844,3.771h-2.711
		c-0.355-0.58-0.594-1.245-0.72-1.986c-0.622,0.756-1.318,1.319-2.093,1.689c-0.768,0.374-1.612,0.558-2.527,0.558
		c-1.375,0-2.497-0.426-3.367-1.278c-0.875-0.851-1.312-2.123-1.312-3.808c0-2.812,0.83-5.271,2.49-7.394
		c1.659-2.116,3.741-3.174,6.25-3.174C67.755,74.313,69.475,74.737,70.616,75.582L70.616,75.582z M67.637,77.14
		c-0.282-0.422-1.119-0.634-2.526-0.634c-1.468,0-2.764,0.787-3.894,2.364c-1.13,1.578-1.702,3.549-1.702,5.92
		c0,1.953,0.854,2.93,2.558,2.93c0.757,0,1.475-0.199,2.142-0.607c0.678-0.409,1.134-0.82,1.371-1.243
		c0.236-0.421,0.474-1.193,0.711-2.313L67.637,77.14z"/>
	<path fill="#3C82CD" d="M73.899,75.511c1.804-0.756,3.557-1.136,5.262-1.136c1.585,0,2.8,0.332,3.645,0.997
		c0.838,0.661,1.26,1.582,1.26,2.751c0,0.907-0.273,1.69-0.814,2.36c-0.549,0.66-1.68,1.311-3.397,1.945
		c-1.152,0.418-2.131,0.785-2.923,1.098c-0.801,0.311-1.368,0.644-1.708,1.002c-0.337,0.359-0.5,0.813-0.5,1.361
		c0,1.221,0.815,1.827,2.445,1.827c1.719,0,3.417-0.534,5.083-1.606l-0.322,2.832c-1.805,0.685-3.501,1.023-5.102,1.023
		c-1.608,0-2.854-0.348-3.734-1.05c-0.883-0.698-1.327-1.675-1.327-2.931c0-2.019,1.404-3.523,4.212-4.518
		c2.279-0.805,3.716-1.377,4.31-1.714c0.592-0.345,0.885-0.84,0.885-1.493c0-0.488-0.204-0.878-0.604-1.185
		c-0.407-0.302-0.975-0.454-1.705-0.454c-1.123,0-2.416,0.415-3.867,1.253L73.899,75.511z"/>
	<path fill="#3C82CD" d="M88.11,82.565c-0.015,0.104-0.029,0.375-0.029,0.826c0,1.479,0.371,2.57,1.104,3.272
		c0.738,0.702,1.623,1.054,2.664,1.054c1.16,0,2.361-0.4,3.598-1.209L95.12,89.2c-1.33,0.513-2.653,0.767-3.965,0.767
		c-3.879,0-5.816-2.138-5.816-6.42c0-2.563,0.83-4.733,2.49-6.509c1.658-1.775,3.723-2.664,6.19-2.664
		c1.435,0,2.605,0.314,3.494,0.953c0.9,0.637,1.348,1.559,1.348,2.764c0,1.695-0.695,2.992-2.082,3.895
		c-1.39,0.902-3.09,1.352-5.094,1.352C90.251,83.337,89.059,83.08,88.11,82.565L88.11,82.565z M88.562,80.628
		c0.815,0.348,1.712,0.52,2.689,0.52c1.556,0,2.771-0.24,3.642-0.723c0.871-0.486,1.309-1.141,1.309-1.971
		c0-0.541-0.212-0.982-0.631-1.326c-0.423-0.337-1.019-0.504-1.785-0.504c-1.159,0-2.187,0.341-3.09,1.033
		C89.8,78.343,89.084,79.338,88.562,80.628z"/>
	<polygon fill="#3C82CD" points="114.83,74.638 112.148,89.706 109.405,89.706 110.636,82.899 103.878,82.899 102.667,89.706 
		99.94,89.706 102.596,74.638 105.323,74.638 104.256,80.683 110.984,80.683 112.066,74.638 	"/>
	<path fill="#3C82CD" d="M133.591,89.706l1.305-7.27c0.326-1.826,0.488-2.945,0.488-3.357c0-1.639-0.822-2.455-2.475-2.455
		c-0.485,0-0.976,0.117-1.468,0.359c-0.488,0.238-1.089,0.768-1.793,1.597l-1.984,11.126h-2.756l1.934-10.712l0.029-0.438
		c0-1.287-0.883-1.932-2.652-1.932c-0.656,0-1.356,0.284-2.105,0.865c-0.747,0.576-1.138,0.945-1.163,1.121l-1.956,11.096h-2.733
		l1.962-10.965c0.062-0.344,0.089-0.785,0.089-1.32c0-0.973-0.103-1.82-0.303-2.527l2.585-0.49c0.159,0.67,0.26,1.324,0.297,1.957
		c0.4-0.633,1.03-1.125,1.889-1.471c0.853-0.343,1.749-0.515,2.675-0.515c2.135,0,3.523,0.671,4.173,2.015
		c0.421-0.586,1.066-1.068,1.934-1.447c0.864-0.381,1.738-0.567,2.615-0.567c2.727,0,4.091,1.299,4.091,3.897
		c0,0.479-0.041,0.93-0.127,1.354l-1.8,10.079H133.591z"/>
	<path fill="#3C82CD" d="M152.36,75.162l-0.497,2.278c-0.696-0.547-1.6-0.816-2.72-0.816c-1.704,0-3.097,0.68-4.172,2.035
		c-1.074,1.352-1.607,3.031-1.607,5.035c0,0.748,0.134,1.402,0.4,1.97c0.267,0.563,0.671,1.045,1.215,1.44
		c0.538,0.391,1.133,0.586,1.779,0.586c1.374,0,2.682-0.41,3.934-1.227l-0.317,2.686c-1.233,0.55-2.574,0.818-4.035,0.818
		c-1.833,0-3.256-0.516-4.264-1.554c-1.012-1.039-1.516-2.461-1.516-4.267c0-2.869,0.79-5.215,2.375-7.039
		c1.579-1.822,3.586-2.734,6.018-2.734C150.389,74.375,151.522,74.638,152.36,75.162z"/>
	<path fill="#3C82CD" d="M170.933,89.706l1.297-7.27c0.329-1.826,0.497-2.945,0.497-3.357c0-1.639-0.827-2.455-2.476-2.455
		c-0.489,0-0.979,0.117-1.472,0.359c-0.487,0.238-1.089,0.768-1.79,1.597l-1.988,11.126h-2.752l1.934-10.712l0.025-0.438
		c0-1.287-0.882-1.932-2.648-1.932c-0.656,0-1.358,0.284-2.108,0.865c-0.748,0.576-1.138,0.945-1.163,1.121l-1.956,11.096h-2.729
		l1.96-10.965c0.056-0.344,0.085-0.785,0.085-1.32c0-0.973-0.104-1.82-0.305-2.527l2.586-0.49c0.159,0.67,0.259,1.324,0.297,1.957
		c0.403-0.633,1.03-1.125,1.891-1.471c0.858-0.343,1.749-0.515,2.674-0.515c2.134,0,3.526,0.671,4.171,2.015
		c0.423-0.586,1.067-1.068,1.935-1.447c0.867-0.381,1.737-0.567,2.616-0.567c2.728,0,4.089,1.299,4.089,3.897
		c0,0.479-0.041,0.93-0.125,1.354l-1.8,10.079H170.933z"/>
	<path fill="#3C82CD" d="M191.391,78.095c0,0.92-0.33,1.738-0.98,2.449c-0.66,0.71-1.546,1.189-2.664,1.434
		c1.011,0.232,1.781,0.639,2.319,1.211c0.537,0.572,0.795,1.258,0.795,2.055c0,1.324-0.614,2.451-1.845,3.384
		c-1.237,0.931-3.06,1.401-5.481,1.401c-0.92,0-1.936-0.127-3.054-0.373c-1.115-0.25-1.849-0.469-2.202-0.661
		c-0.348-0.192-0.524-0.396-0.524-0.613c0-0.108,0.229-1.385,0.688-3.825c0.571-2.964,0.919-4.647,1.041-5.051
		c0.289-0.949,0.683-1.758,1.175-2.434c0.493-0.674,1.053-1.221,1.682-1.635c0.63-0.414,1.297-0.711,2.005-0.898
		c0.708-0.189,1.453-0.282,2.234-0.282c1.481,0,2.651,0.358,3.52,1.074C190.958,76.052,191.391,76.972,191.391,78.095
		L191.391,78.095z M180.506,87.153c0.159,0.234,0.574,0.439,1.241,0.607c0.663,0.166,1.386,0.25,2.168,0.25
		c1.273,0,2.308-0.244,3.1-0.728s1.193-1.173,1.193-2.067c0-0.669-0.268-1.208-0.804-1.63c-0.529-0.416-1.355-0.624-2.471-0.624
		h-3.661L180.506,87.153L180.506,87.153z M181.596,81.118h2.626c3.068,0,4.598-0.93,4.598-2.803c0-0.592-0.203-1.084-0.611-1.463
		c-0.406-0.389-1.016-0.58-1.829-0.58C183.721,76.272,182.129,77.886,181.596,81.118z"/>
	<path fill="#3C82CD" d="M193.358,84.174c0-1.641,0.333-3.223,1-4.735c0.667-1.516,1.646-2.736,2.945-3.67
		c1.297-0.928,2.768-1.394,4.405-1.394c1.812,0,3.202,0.489,4.18,1.472c0.974,0.979,1.46,2.391,1.46,4.221
		c0,2.658-0.761,4.97-2.282,6.945c-1.526,1.971-3.564,2.955-6.125,2.955c-1.79,0-3.168-0.5-4.135-1.5
		C193.84,87.47,193.358,86.035,193.358,84.174L193.358,84.174z M196.163,83.983c0,2.531,1.063,3.797,3.189,3.797
		c1.586,0,2.851-0.784,3.786-2.346c0.935-1.566,1.408-3.314,1.408-5.262c0-2.406-1.074-3.607-3.208-3.607
		c-1.563,0-2.82,0.76-3.764,2.287C196.634,80.379,196.163,82.087,196.163,83.983z"/>
</g>
</svg>
